{
  "data": {
    "server_name": "Knarf",
    "server_IP": "knarf.pl",
    "version": "1.11.2"
  },
  "groups": [
    "admin",
    "gracz",
    "VIP"
  ],
  "commands": [
    {
      "command": "/help",
      "description": "Wyświetla tekst pomocy",
      "groups": [
        "gracz"
      ]
    },
    {
      "command": "/pl",
      "description": "Wyświetla zainstalowane pluginy",
      "groups": [
        "admin"
      ]
    },
    {
      "command": "/fly",
      "description": "Włącza/wyłącza możliwość latania",
      "groups": [
        "admin",
        "VIP"
      ]
    }
  ],
  "links": [
    {
      "name": "Strona na facebooku",
      "url": "https://www.facebook.com/DivineKnarf/"
    },
    {
      "name": "Minecraft List",
      "url": "http://www.minecraft-list.pl/?page=list&id=6055"
    }
  ],
  "contacts": [
    {
      "type": "skype",
      "address": "mati-20"
    },
    {
      "type": "email",
      "address": "mlegiecki@gmail.com"
    }
  ],
  "rules": [
    "Zakaz griefowania",
    "Wszelkie haxy i oszustwa nagradzane są banem",
    "Bąź miły i pomocny dla innych",
    "Proszenie o creativa/itemy/rangę grozi kickiem a następnie banem",
    "Działki przydzielane są indywidualnie, możesz samemu oznaczyć działkę i poprosić administrację o przydzielenie regionu lub poprosić również o znalezienie miejsca"
  ]
}
